C:\Projects\Spring\GridSolver\src\main\java\GridSolver\WordGrid.java
C:\Projects\Spring\GridSolver\src\main\java\GridSolver\WordList.java
C:\Projects\Spring\GridSolver\src\main\java\GridSolver\Application.java
C:\Projects\Spring\GridSolver\src\main\java\GridSolver\WordGridController.java
